55
69
110
116
101
114
32
102
105
114
115
116
32
110
117
109
98
101
114
58
32
0
69
110
116
101
114
32
115
101
99
111
110
100
32
110
117
109
98
101
114
58
32
0
82
101
115
117
108
116
32
105
115
32
0
31
1
33
31
22
33
21
31
44
32
40
